digraph g {
graph [
rankdir = "LR",
concentrate = true,
ratio = auto
];
node [
fontsize = "10",
shape = record
];
edge [
];

"cargo" [shape = plaintext, label = < <TABLE BORDER="1" CELLBORDER="0" CELLSPACING="0"> <TR ><TD PORT="ltcol0"> </TD> <TD bgcolor="grey90" border="1" COLSPAN="4"> \N </TD> <TD PORT="rtcol0"></TD></TR>  <TR><TD PORT="ltcol1" ></TD><TD align="left" > id </TD><TD align="left" > serial </TD><TD align="left" > PK </TD><TD align="left" >  </TD><TD align="left" PORT="rtcol1"> </TD></TR> <TR><TD PORT="ltcol2" ></TD><TD align="left" > denominacion </TD><TD align="left" > character varying(50) </TD><TD align="left" >  </TD><TD align="left" >  </TD><TD align="left" PORT="rtcol2"> </TD></TR> <TR><TD PORT="ltcol3" ></TD><TD align="left" > estatus </TD><TD align="left" > character varying(3) </TD><TD align="left" >  </TD><TD align="left" >  </TD><TD align="left" PORT="rtcol3"> </TD></TR> </TABLE>> ];

"ciudad" [shape = plaintext, label = < <TABLE BORDER="1" CELLBORDER="0" CELLSPACING="0"> <TR ><TD PORT="ltcol0"> </TD> <TD bgcolor="grey90" border="1" COLSPAN="4"> \N </TD> <TD PORT="rtcol0"></TD></TR>  <TR><TD PORT="ltcol1" ></TD><TD align="left" > id_ciu </TD><TD align="left" > integer </TD><TD align="left" > PK </TD><TD align="left" >  </TD><TD align="left" PORT="rtcol1"> </TD></TR> <TR><TD PORT="ltcol2" ></TD><TD align="left" > nombre </TD><TD align="left" > character varying(75) </TD><TD align="left" >  </TD><TD align="left" >  </TD><TD align="left" PORT="rtcol2"> </TD></TR> <TR><TD PORT="ltcol3" ></TD><TD align="left" > estado </TD><TD align="left" > integer </TD><TD align="left" >  </TD><TD align="left" > FK </TD><TD align="left" PORT="rtcol3"> </TD></TR> <TR><TD PORT="ltcol4" ></TD><TD align="left" > estatus </TD><TD align="left" > character varying(3) </TD><TD align="left" >  </TD><TD align="left" >  </TD><TD align="left" PORT="rtcol4"> </TD></TR> </TABLE>> ];

"departamento" [shape = plaintext, label = < <TABLE BORDER="1" CELLBORDER="0" CELLSPACING="0"> <TR ><TD PORT="ltcol0"> </TD> <TD bgcolor="grey90" border="1" COLSPAN="4"> \N </TD> <TD PORT="rtcol0"></TD></TR>  <TR><TD PORT="ltcol1" ></TD><TD align="left" > id </TD><TD align="left" > serial </TD><TD align="left" > PK </TD><TD align="left" >  </TD><TD align="left" PORT="rtcol1"> </TD></TR> <TR><TD PORT="ltcol2" ></TD><TD align="left" > denominacion </TD><TD align="left" > character varying(30) </TD><TD align="left" >  </TD><TD align="left" >  </TD><TD align="left" PORT="rtcol2"> </TD></TR> <TR><TD PORT="ltcol3" ></TD><TD align="left" > estatus </TD><TD align="left" > character varying(3) </TD><TD align="left" >  </TD><TD align="left" >  </TD><TD align="left" PORT="rtcol3"> </TD></TR> </TABLE>> ];

"estado" [shape = plaintext, label = < <TABLE BORDER="1" CELLBORDER="0" CELLSPACING="0"> <TR ><TD PORT="ltcol0"> </TD> <TD bgcolor="grey90" border="1" COLSPAN="4"> \N </TD> <TD PORT="rtcol0"></TD></TR>  <TR><TD PORT="ltcol1" ></TD><TD align="left" > id_edo </TD><TD align="left" > integer </TD><TD align="left" > PK </TD><TD align="left" >  </TD><TD align="left" PORT="rtcol1"> </TD></TR> <TR><TD PORT="ltcol2" ></TD><TD align="left" > nombre </TD><TD align="left" > character varying(50) </TD><TD align="left" >  </TD><TD align="left" >  </TD><TD align="left" PORT="rtcol2"> </TD></TR> <TR><TD PORT="ltcol3" ></TD><TD align="left" > estatus </TD><TD align="left" > character varying(3) </TD><TD align="left" >  </TD><TD align="left" >  </TD><TD align="left" PORT="rtcol3"> </TD></TR> <TR><TD PORT="ltcol4" ></TD><TD align="left" > abrv </TD><TD align="left" > character varying(3) </TD><TD align="left" >  </TD><TD align="left" >  </TD><TD align="left" PORT="rtcol4"> </TD></TR> </TABLE>> ];

"motivo" [shape = plaintext, label = < <TABLE BORDER="1" CELLBORDER="0" CELLSPACING="0"> <TR ><TD PORT="ltcol0"> </TD> <TD bgcolor="grey90" border="1" COLSPAN="4"> \N </TD> <TD PORT="rtcol0"></TD></TR>  <TR><TD PORT="ltcol1" ></TD><TD align="left" > id </TD><TD align="left" > serial </TD><TD align="left" > PK </TD><TD align="left" >  </TD><TD align="left" PORT="rtcol1"> </TD></TR> <TR><TD PORT="ltcol2" ></TD><TD align="left" > denominacion </TD><TD align="left" > character varying(30) </TD><TD align="left" >  </TD><TD align="left" >  </TD><TD align="left" PORT="rtcol2"> </TD></TR> <TR><TD PORT="ltcol3" ></TD><TD align="left" > estatus </TD><TD align="left" > character varying(3) </TD><TD align="left" >  </TD><TD align="left" >  </TD><TD align="left" PORT="rtcol3"> </TD></TR> </TABLE>> ];

"municipio" [shape = plaintext, label = < <TABLE BORDER="1" CELLBORDER="0" CELLSPACING="0"> <TR ><TD PORT="ltcol0"> </TD> <TD bgcolor="grey90" border="1" COLSPAN="4"> \N </TD> <TD PORT="rtcol0"></TD></TR>  <TR><TD PORT="ltcol1" ></TD><TD align="left" > id_mun </TD><TD align="left" > integer </TD><TD align="left" > PK </TD><TD align="left" >  </TD><TD align="left" PORT="rtcol1"> </TD></TR> <TR><TD PORT="ltcol2" ></TD><TD align="left" > nombre </TD><TD align="left" > character varying(50) </TD><TD align="left" >  </TD><TD align="left" >  </TD><TD align="left" PORT="rtcol2"> </TD></TR> <TR><TD PORT="ltcol3" ></TD><TD align="left" > estatus </TD><TD align="left" > character varying(3) </TD><TD align="left" >  </TD><TD align="left" >  </TD><TD align="left" PORT="rtcol3"> </TD></TR> <TR><TD PORT="ltcol4" ></TD><TD align="left" > estado </TD><TD align="left" > integer </TD><TD align="left" >  </TD><TD align="left" > FK </TD><TD align="left" PORT="rtcol4"> </TD></TR> </TABLE>> ];

"persona" [shape = plaintext, label = < <TABLE BORDER="1" CELLBORDER="0" CELLSPACING="0"> <TR ><TD PORT="ltcol0"> </TD> <TD bgcolor="grey90" border="1" COLSPAN="4"> \N </TD> <TD PORT="rtcol0"></TD></TR>  <TR><TD PORT="ltcol1" ></TD><TD align="left" > id </TD><TD align="left" > integer </TD><TD align="left" > PK </TD><TD align="left" >  </TD><TD align="left" PORT="rtcol1"> </TD></TR> <TR><TD PORT="ltcol2" ></TD><TD align="left" > nombre </TD><TD align="left" > character varying(20) </TD><TD align="left" >  </TD><TD align="left" >  </TD><TD align="left" PORT="rtcol2"> </TD></TR> <TR><TD PORT="ltcol3" ></TD><TD align="left" > apellido </TD><TD align="left" > character varying(20) </TD><TD align="left" >  </TD><TD align="left" >  </TD><TD align="left" PORT="rtcol3"> </TD></TR> <TR><TD PORT="ltcol4" ></TD><TD align="left" > sexo </TD><TD align="left" > "char" </TD><TD align="left" >  </TD><TD align="left" >  </TD><TD align="left" PORT="rtcol4"> </TD></TR> <TR><TD PORT="ltcol5" ></TD><TD align="left" > edo_civil </TD><TD align="left" > "char" </TD><TD align="left" >  </TD><TD align="left" >  </TD><TD align="left" PORT="rtcol5"> </TD></TR> <TR><TD PORT="ltcol6" ></TD><TD align="left" > nacionalidad </TD><TD align="left" > "char" </TD><TD align="left" >  </TD><TD align="left" >  </TD><TD align="left" PORT="rtcol6"> </TD></TR> <TR><TD PORT="ltcol7" ></TD><TD align="left" > telefono </TD><TD align="left" > character varying(12) </TD><TD align="left" >  </TD><TD align="left" >  </TD><TD align="left" PORT="rtcol7"> </TD></TR> <TR><TD PORT="ltcol8" ></TD><TD align="left" > correo_pers </TD><TD align="left" > character varying(50) </TD><TD align="left" >  </TD><TD align="left" >  </TD><TD align="left" PORT="rtcol8"> </TD></TR> <TR><TD PORT="ltcol9" ></TD><TD align="left" > fecha_nacimiento </TD><TD align="left" > date </TD><TD align="left" >  </TD><TD align="left" >  </TD><TD align="left" PORT="rtcol9"> </TD></TR> <TR><TD PORT="ltcol10" ></TD><TD align="left" > direccion_hab </TD><TD align="left" > text </TD><TD align="left" >  </TD><TD align="left" >  </TD><TD align="left" PORT="rtcol10"> </TD></TR> <TR><TD PORT="ltcol11" ></TD><TD align="left" > municipio </TD><TD align="left" > integer </TD><TD align="left" >  </TD><TD align="left" > FK </TD><TD align="left" PORT="rtcol11"> </TD></TR> <TR><TD PORT="ltcol12" ></TD><TD align="left" > ciudad </TD><TD align="left" > integer </TD><TD align="left" >  </TD><TD align="left" > FK </TD><TD align="left" PORT="rtcol12"> </TD></TR> <TR><TD PORT="ltcol13" ></TD><TD align="left" > codigo_postal </TD><TD align="left" > character varying(4) </TD><TD align="left" >  </TD><TD align="left" >  </TD><TD align="left" PORT="rtcol13"> </TD></TR> <TR><TD PORT="ltcol14" ></TD><TD align="left" > foto </TD><TD align="left" > character varying(70) </TD><TD align="left" >  </TD><TD align="left" >  </TD><TD align="left" PORT="rtcol14"> </TD></TR> <TR><TD PORT="ltcol15" ></TD><TD align="left" > profesion </TD><TD align="left" > character varying(30) </TD><TD align="left" >  </TD><TD align="left" >  </TD><TD align="left" PORT="rtcol15"> </TD></TR> <TR><TD PORT="ltcol16" ></TD><TD align="left" > estatus </TD><TD align="left" > character varying(3) </TD><TD align="left" >  </TD><TD align="left" >  </TD><TD align="left" PORT="rtcol16"> </TD></TR> <TR><TD PORT="ltcol17" ></TD><TD align="left" > tipo_visitante </TD><TD align="left" > integer </TD><TD align="left" >  </TD><TD align="left" > FK </TD><TD align="left" PORT="rtcol17"> </TD></TR> </TABLE>> ];

"personal" [shape = plaintext, label = < <TABLE BORDER="1" CELLBORDER="0" CELLSPACING="0"> <TR ><TD PORT="ltcol0"> </TD> <TD bgcolor="grey90" border="1" COLSPAN="4"> \N </TD> <TD PORT="rtcol0"></TD></TR>  <TR><TD PORT="ltcol1" ></TD><TD align="left" > persona </TD><TD align="left" > integer </TD><TD align="left" > PK </TD><TD align="left" > FK </TD><TD align="left" PORT="rtcol1"> </TD></TR> <TR><TD PORT="ltcol2" ></TD><TD align="left" > departamento </TD><TD align="left" > integer </TD><TD align="left" >  </TD><TD align="left" > FK </TD><TD align="left" PORT="rtcol2"> </TD></TR> <TR><TD PORT="ltcol3" ></TD><TD align="left" > cargo </TD><TD align="left" > integer </TD><TD align="left" >  </TD><TD align="left" > FK </TD><TD align="left" PORT="rtcol3"> </TD></TR> <TR><TD PORT="ltcol4" ></TD><TD align="left" > ext_telef </TD><TD align="left" > character varying(7) </TD><TD align="left" >  </TD><TD align="left" >  </TD><TD align="left" PORT="rtcol4"> </TD></TR> <TR><TD PORT="ltcol5" ></TD><TD align="left" > correo_org </TD><TD align="left" > character varying(30) </TD><TD align="left" >  </TD><TD align="left" >  </TD><TD align="left" PORT="rtcol5"> </TD></TR> <TR><TD PORT="ltcol6" ></TD><TD align="left" > zona </TD><TD align="left" > integer </TD><TD align="left" >  </TD><TD align="left" > FK </TD><TD align="left" PORT="rtcol6"> </TD></TR> <TR><TD PORT="ltcol7" ></TD><TD align="left" > estatus </TD><TD align="left" > character varying(3) </TD><TD align="left" >  </TD><TD align="left" >  </TD><TD align="left" PORT="rtcol7"> </TD></TR> </TABLE>> ];

"procedencia" [shape = plaintext, label = < <TABLE BORDER="1" CELLBORDER="0" CELLSPACING="0"> <TR ><TD PORT="ltcol0"> </TD> <TD bgcolor="grey90" border="1" COLSPAN="4"> \N </TD> <TD PORT="rtcol0"></TD></TR>  <TR><TD PORT="ltcol1" ></TD><TD align="left" > id </TD><TD align="left" > serial </TD><TD align="left" > PK </TD><TD align="left" >  </TD><TD align="left" PORT="rtcol1"> </TD></TR> <TR><TD PORT="ltcol2" ></TD><TD align="left" > denominacion </TD><TD align="left" > character varying(100) </TD><TD align="left" >  </TD><TD align="left" >  </TD><TD align="left" PORT="rtcol2"> </TD></TR> <TR><TD PORT="ltcol3" ></TD><TD align="left" > id_alterno </TD><TD align="left" > character varying(15) </TD><TD align="left" >  </TD><TD align="left" >  </TD><TD align="left" PORT="rtcol3"> </TD></TR> <TR><TD PORT="ltcol4" ></TD><TD align="left" > estatus </TD><TD align="left" > character varying(3) </TD><TD align="left" >  </TD><TD align="left" >  </TD><TD align="left" PORT="rtcol4"> </TD></TR> </TABLE>> ];

"rol" [shape = plaintext, label = < <TABLE BORDER="1" CELLBORDER="0" CELLSPACING="0"> <TR ><TD PORT="ltcol0"> </TD> <TD bgcolor="grey90" border="1" COLSPAN="4"> \N </TD> <TD PORT="rtcol0"></TD></TR>  <TR><TD PORT="ltcol1" ></TD><TD align="left" > id </TD><TD align="left" > character varying(20) </TD><TD align="left" > PK </TD><TD align="left" >  </TD><TD align="left" PORT="rtcol1"> </TD></TR> <TR><TD PORT="ltcol2" ></TD><TD align="left" > denominacion </TD><TD align="left" > character varying(30) </TD><TD align="left" >  </TD><TD align="left" >  </TD><TD align="left" PORT="rtcol2"> </TD></TR> <TR><TD PORT="ltcol3" ></TD><TD align="left" > estatus </TD><TD align="left" > character varying(3) </TD><TD align="left" >  </TD><TD align="left" >  </TD><TD align="left" PORT="rtcol3"> </TD></TR> <TR><TD PORT="ltcol4" ></TD><TD align="left" > imagen </TD><TD align="left" > text </TD><TD align="left" >  </TD><TD align="left" >  </TD><TD align="left" PORT="rtcol4"> </TD></TR> </TABLE>> ];

"tipo_visitante" [shape = plaintext, label = < <TABLE BORDER="1" CELLBORDER="0" CELLSPACING="0"> <TR ><TD PORT="ltcol0"> </TD> <TD bgcolor="grey90" border="1" COLSPAN="4"> \N </TD> <TD PORT="rtcol0"></TD></TR>  <TR><TD PORT="ltcol1" ></TD><TD align="left" > id </TD><TD align="left" > serial </TD><TD align="left" > PK </TD><TD align="left" >  </TD><TD align="left" PORT="rtcol1"> </TD></TR> <TR><TD PORT="ltcol2" ></TD><TD align="left" > denominacion </TD><TD align="left" > character varying(50) </TD><TD align="left" >  </TD><TD align="left" >  </TD><TD align="left" PORT="rtcol2"> </TD></TR> <TR><TD PORT="ltcol3" ></TD><TD align="left" > estatus </TD><TD align="left" > character varying(3) </TD><TD align="left" >  </TD><TD align="left" >  </TD><TD align="left" PORT="rtcol3"> </TD></TR> </TABLE>> ];

"usuario" [shape = plaintext, label = < <TABLE BORDER="1" CELLBORDER="0" CELLSPACING="0"> <TR ><TD PORT="ltcol0"> </TD> <TD bgcolor="grey90" border="1" COLSPAN="4"> \N </TD> <TD PORT="rtcol0"></TD></TR>  <TR><TD PORT="ltcol1" ></TD><TD align="left" > id </TD><TD align="left" > character varying(20) </TD><TD align="left" > PK </TD><TD align="left" >  </TD><TD align="left" PORT="rtcol1"> </TD></TR> <TR><TD PORT="ltcol2" ></TD><TD align="left" > persona </TD><TD align="left" > integer </TD><TD align="left" >  </TD><TD align="left" > FK </TD><TD align="left" PORT="rtcol2"> </TD></TR> <TR><TD PORT="ltcol3" ></TD><TD align="left" > clave </TD><TD align="left" > character varying(70) </TD><TD align="left" >  </TD><TD align="left" >  </TD><TD align="left" PORT="rtcol3"> </TD></TR> <TR><TD PORT="ltcol4" ></TD><TD align="left" > estatus </TD><TD align="left" > character varying(3) </TD><TD align="left" >  </TD><TD align="left" >  </TD><TD align="left" PORT="rtcol4"> </TD></TR> </TABLE>> ];

"usuario_rol" [shape = plaintext, label = < <TABLE BORDER="1" CELLBORDER="0" CELLSPACING="0"> <TR ><TD PORT="ltcol0"> </TD> <TD bgcolor="grey90" border="1" COLSPAN="4"> \N </TD> <TD PORT="rtcol0"></TD></TR>  <TR><TD PORT="ltcol1" ></TD><TD align="left" > usuario </TD><TD align="left" > character varying(20) </TD><TD align="left" > PK </TD><TD align="left" >  </TD><TD align="left" PORT="rtcol1"> </TD></TR> <TR><TD PORT="ltcol2" ></TD><TD align="left" > rol </TD><TD align="left" > character varying(20) </TD><TD align="left" > PK </TD><TD align="left" > FK </TD><TD align="left" PORT="rtcol2"> </TD></TR> <TR><TD PORT="ltcol3" ></TD><TD align="left" > estatus </TD><TD align="left" > character varying(3) </TD><TD align="left" >  </TD><TD align="left" >  </TD><TD align="left" PORT="rtcol3"> </TD></TR> </TABLE>> ];

"visita" [shape = plaintext, label = < <TABLE BORDER="1" CELLBORDER="0" CELLSPACING="0"> <TR ><TD PORT="ltcol0"> </TD> <TD bgcolor="grey90" border="1" COLSPAN="4"> \N </TD> <TD PORT="rtcol0"></TD></TR>  <TR><TD PORT="ltcol1" ></TD><TD align="left" > id </TD><TD align="left" > serial </TD><TD align="left" > PK </TD><TD align="left" >  </TD><TD align="left" PORT="rtcol1"> </TD></TR> <TR><TD PORT="ltcol2" ></TD><TD align="left" > visitante </TD><TD align="left" > integer </TD><TD align="left" >  </TD><TD align="left" > FK </TD><TD align="left" PORT="rtcol2"> </TD></TR> <TR><TD PORT="ltcol3" ></TD><TD align="left" > visitado </TD><TD align="left" > integer </TD><TD align="left" >  </TD><TD align="left" > FK </TD><TD align="left" PORT="rtcol3"> </TD></TR> <TR><TD PORT="ltcol4" ></TD><TD align="left" > fecha_visita </TD><TD align="left" > date </TD><TD align="left" >  </TD><TD align="left" >  </TD><TD align="left" PORT="rtcol4"> </TD></TR> <TR><TD PORT="ltcol5" ></TD><TD align="left" > hora_visita </TD><TD align="left" > time without time zone </TD><TD align="left" >  </TD><TD align="left" >  </TD><TD align="left" PORT="rtcol5"> </TD></TR> <TR><TD PORT="ltcol6" ></TD><TD align="left" > hora_salida </TD><TD align="left" > time without time zone </TD><TD align="left" >  </TD><TD align="left" >  </TD><TD align="left" PORT="rtcol6"> </TD></TR> <TR><TD PORT="ltcol7" ></TD><TD align="left" > observaciones </TD><TD align="left" > text </TD><TD align="left" >  </TD><TD align="left" >  </TD><TD align="left" PORT="rtcol7"> </TD></TR> <TR><TD PORT="ltcol8" ></TD><TD align="left" > zona </TD><TD align="left" > integer </TD><TD align="left" >  </TD><TD align="left" > FK </TD><TD align="left" PORT="rtcol8"> </TD></TR> <TR><TD PORT="ltcol9" ></TD><TD align="left" > estatus </TD><TD align="left" > character varying(3) </TD><TD align="left" >  </TD><TD align="left" >  </TD><TD align="left" PORT="rtcol9"> </TD></TR> <TR><TD PORT="ltcol10" ></TD><TD align="left" > motivo </TD><TD align="left" > integer </TD><TD align="left" >  </TD><TD align="left" > FK </TD><TD align="left" PORT="rtcol10"> </TD></TR> <TR><TD PORT="ltcol11" ></TD><TD align="left" > procedencia </TD><TD align="left" > integer </TD><TD align="left" >  </TD><TD align="left" > FK </TD><TD align="left" PORT="rtcol11"> </TD></TR> <TR><TD PORT="ltcol12" ></TD><TD align="left" > tipo_visitante </TD><TD align="left" > integer </TD><TD align="left" >  </TD><TD align="left" > FK </TD><TD align="left" PORT="rtcol12"> </TD></TR> <TR><TD PORT="ltcol13" ></TD><TD align="left" > usuario </TD><TD align="left" > character varying(20) </TD><TD align="left" >  </TD><TD align="left" > FK </TD><TD align="left" PORT="rtcol13"> </TD></TR> <TR><TD PORT="ltcol14" ></TD><TD align="left" > cargo_vtante </TD><TD align="left" > integer </TD><TD align="left" >  </TD><TD align="left" > FK </TD><TD align="left" PORT="rtcol14"> </TD></TR> <TR><TD PORT="ltcol15" ></TD><TD align="left" > nro_carnet </TD><TD align="left" > character varying(5) </TD><TD align="left" >  </TD><TD align="left" >  </TD><TD align="left" PORT="rtcol15"> </TD></TR> </TABLE>> ];

"zona" [shape = plaintext, label = < <TABLE BORDER="1" CELLBORDER="0" CELLSPACING="0"> <TR ><TD PORT="ltcol0"> </TD> <TD bgcolor="grey90" border="1" COLSPAN="4"> \N </TD> <TD PORT="rtcol0"></TD></TR>  <TR><TD PORT="ltcol1" ></TD><TD align="left" > id </TD><TD align="left" > serial </TD><TD align="left" > PK </TD><TD align="left" >  </TD><TD align="left" PORT="rtcol1"> </TD></TR> <TR><TD PORT="ltcol2" ></TD><TD align="left" > denominacion </TD><TD align="left" > character varying(30) </TD><TD align="left" >  </TD><TD align="left" >  </TD><TD align="left" PORT="rtcol2"> </TD></TR> <TR><TD PORT="ltcol3" ></TD><TD align="left" > estatus </TD><TD align="left" > character varying(3) </TD><TD align="left" >  </TD><TD align="left" >  </TD><TD align="left" PORT="rtcol3"> </TD></TR> </TABLE>> ];



"ciudad":rtcol3 -> "estado":ltcol1 [label="estado_fk"];
"municipio":rtcol4 -> "estado":ltcol1 [label="estado_fk"];
"persona":rtcol11 -> "municipio":ltcol1 [label="pers_mun_fk"];
"persona":rtcol12 -> "ciudad":ltcol1 [label="pers_ciu_fk"];
"persona":rtcol17 -> "tipo_visitante":ltcol1 [label="pers_tipo_vis_fk"];
"personal":rtcol1 -> "persona":ltcol1 [label="persn_pers_id_fk"];
"personal":rtcol2 -> "departamento":ltcol1 [label="persn_dpt_fk"];
"personal":rtcol3 -> "cargo":ltcol1 [label="persn_cargo_fk"];
"personal":rtcol6 -> "zona":ltcol1 [label="persn_zona_id_fk"];
"usuario":rtcol2 -> "persona":ltcol1 [label="usu_per_fk"];
"usuario_rol":rtcol1 -> "usuario":ltcol1 [label="usuario_id_fk"];
"usuario_rol":rtcol2 -> "rol":ltcol1 [label="rol_id_fk"];
"visita":rtcol2 -> "persona":ltcol1 [label="vta_vte_pers_id_fk"];
"visita":rtcol3 -> "personal":ltcol1 [label="vta_pers_id_fk"];
"visita":rtcol8 -> "zona":ltcol1 [label="vta_zona_id_fk"];
"visita":rtcol10 -> "motivo":ltcol1 [label="vta_motivo_id_fk"];
"visita":rtcol11 -> "procedencia":ltcol1 [label="vta_proc_id_fk"];
"visita":rtcol12 -> "tipo_visitante":ltcol1 [label="vta_tpvitante_id_fk"];
"visita":rtcol13 -> "usuario":ltcol1 [label="vta_usu_id_fk"];
"visita":rtcol14 -> "cargo":ltcol1 [label="vta_cgo_vtante_fk"];
}
